…
``` r
library(tidyverse)
```

We’ll be using [English Premier League
data](https://github.com/Cervus1983/EPL-data/blob/master/index.md). Make
sure to include columns `B365H`, `B365D` and `B365A` — Bet365 betting
odds (<https://www.football-data.co.uk/notes.txt>):

``` r
epl
```

    ## # A tibble: 7,831 x 8
    ##    Season Date       HomeTeam    AwayTeam      FTR   B365H B365D B365A
    ##     <int> <chr>      <chr>       <chr>         <chr> <dbl> <dbl> <dbl>
    ##  1   2002 17/08/2002 Blackburn   Sunderland    D      1.73  3.25  4.33
    ##  2   2002 17/08/2002 Charlton    Chelsea       A      2.8   3.25  2.2 
    ##  3   2002 17/08/2002 Everton     Tottenham     D      2.25  3.25  2.75
    ##  4   2002 17/08/2002 Fulham      Bolton        H      1.73  3.25  4.33
    ##  5   2002 17/08/2002 Leeds       Man City      H      1.67  3.4   4.5 
    ##  6   2002 17/08/2002 Man United  West Brom     H      1.2   5    12   
    ##  7   2002 17/08/2002 Southampton Middlesbrough D      2.25  3.25  2.75
    ##  8   2002 18/08/2002 Arsenal     Birmingham    H      1.22  5    10   
    ##  9   2002 18/08/2002 Aston Villa Liverpool     A      3     3.25  2.1 
    ## 10   2002 19/08/2002 Newcastle   West Ham      H      1.57  3.4   5.5 
    ## # ... with 7,821 more rows
…
